Coffee Shops in NYC by Zip
…
Write dataset by Zipcode

coffee_all %>% 
    group_by(NAME, zip_code) %>% 
    summarize(ave_rating = mean(rating, na.rm = T),
           ave_review_count = mean(review_count, na.rm = T),
           num = n()) %>% 
    arrange(desc(num)) %>% 
    select(Name = NAME,
           Avg_rating = ave_rating,
           Avg_review_count = ave_review_count,
           Number = num,
           Zipcode = zip_code)

## # A tibble: 101 x 5
## # Groups:   Name [3]
##    Name      Avg_rating Avg_review_count Number Zipcode
##    <chr>          <dbl>            <dbl>  <int>   <dbl>
##  1 DD              2.88             8         8   10314
##  2 DD              3.33             7.67      6   10461
##  3 DD              3.62             9.5       4   10462
##  4 Starbucks       2.5             26.8       4   10314
##  5 Starbucks       3.62            52.5       4   11375
##  6 DD              2.83             7         3   10301
##  7 DD              2.33             8.33      3   10467
##  8 DD              2.5              6.33      3   10469
##  9 Starbucks       3.33            14.3       3   10001
## 10 Starbucks       3               29.7       3   10463
## #  with 91 more rows
…
